Medartis Wrist Plates
…
`summarise()` has grouped output by 'plate', 'id', 'rep'. You can override
using the `.groups` argument.

loading_models |>   
  mutate(glance = purrr::map(model, broom::glance))|> 
  tidyr::unnest(glance)

# A tibble: 288 × 17
# Groups:   plate, id, rep [22]
   plate id    rep   cycle model  r.squared adj.r.squared sigma statistic
   <chr> <chr> <chr> <fct> <list>     <dbl>         <dbl> <dbl>     <dbl>
 1 Long  1     1     1     <lm>       0.996         0.996 1.05      2776.
 2 Long  1     1     2     <lm>       0.996         0.996 1.22      2981.
 3 Long  1     1     3     <lm>       0.996         0.995 1.27      3034.
 4 Long  1     1     4     <lm>       0.998         0.997 0.934     4936.
 5 Long  1     1     5     <lm>       0.995         0.995 1.37      2824.
 6 Long  1     1     6     <lm>       0.997         0.997 1.01      4165.
 7 Long  1     1     7     <lm>       0.997         0.996 1.14      3162.
 8 Long  1     1     8     <lm>       0.998         0.998 0.781     7017.
 9 Long  1     1     9     <lm>       0.995         0.995 1.38      2797.
10 Long  1     1     10    <lm>       0.997         0.997 1.08      3903.
# ℹ 278 more rows
# ℹ 8 more variables: p.value <dbl>, df <dbl>, logLik <dbl>, AIC <dbl>,
#   BIC <dbl>, deviance <dbl>, df.residual <int>, nobs <int>

# Extract the slope components of the models
lm_fits <- loading_models |> 
  mutate(tidy = purrr::map(model, broom::tidy)) |> 
  tidyr::unnest(tidy) |> 
  filter(term != '(Intercept)')

lm_fits

# A tibble: 288 × 10
# Groups:   plate, id, rep [22]
   plate id    rep   cycle model  term     estimate std.error statistic  p.value
   <chr> <chr> <chr> <fct> <list> <chr>       <dbl>     <dbl>     <dbl>    <dbl>
 1 Long  1     1     1     <lm>   position     23.1     0.438      52.7 1.47e-13
 2 Long  1     1     2     <lm>   position     22.0     0.404      54.6 9.38e-16
 3 Long  1     1     3     <lm>   position     21.6     0.391      55.1 8.56e-17
 4 Long  1     1     4     <lm>   position     21.7     0.310      70.3 4.59e-17
 5 Long  1     1     5     <lm>   position     21.3     0.402      53.1 1.36e-16
 6 Long  1     1     6     <lm>   position     21.8     0.337      64.5 1.27e-16
 7 Long  1     1     7     <lm>   position     22.2     0.394      56.2 6.95e-15
 8 Long  1     1     8     <lm>   position     21.9     0.262      83.8 5.59e-18
 9 Long  1     1     9     <lm>   position     22.0     0.417      52.9 1.45e-16
10 Long  1     1     10    <lm>   position     22.3     0.357      62.5 1.87e-16
# ℹ 278 more rows
…
